\beamer@endinputifotherversion {3.36pt}
\headcommand {\slideentry {0}{0}{1}{1/1}{}{0}}
\headcommand {\beamer@framepages {1}{1}}
\headcommand {\slideentry {0}{0}{2}{2/6}{}{0}}
\headcommand {\beamer@framepages {2}{6}}
\headcommand {\slideentry {0}{0}{3}{7/11}{}{0}}
\headcommand {\beamer@framepages {7}{11}}
\headcommand {\slideentry {0}{0}{4}{12/16}{}{0}}
\headcommand {\beamer@framepages {12}{16}}
\headcommand {\slideentry {0}{0}{5}{17/21}{}{0}}
\headcommand {\beamer@framepages {17}{21}}
\headcommand {\slideentry {0}{0}{6}{22/27}{}{0}}
\headcommand {\beamer@framepages {22}{27}}
\headcommand {\slideentry {0}{0}{7}{28/33}{}{0}}
\headcommand {\beamer@framepages {28}{33}}
\headcommand {\slideentry {0}{0}{8}{34/39}{}{0}}
\headcommand {\beamer@framepages {34}{39}}
\headcommand {\slideentry {0}{0}{9}{40/45}{}{0}}
\headcommand {\beamer@framepages {40}{45}}
\headcommand {\beamer@partpages {1}{45}}
\headcommand {\beamer@subsectionpages {1}{45}}
\headcommand {\beamer@sectionpages {1}{45}}
\headcommand {\beamer@documentpages {45}}
\headcommand {\def \inserttotalframenumber {9}}
