\beamer@endinputifotherversion {3.36pt}
\headcommand {\slideentry {0}{0}{1}{1/1}{}{0}}
\headcommand {\beamer@framepages {1}{1}}
\headcommand {\slideentry {0}{0}{2}{2/5}{}{0}}
\headcommand {\beamer@framepages {2}{5}}
\headcommand {\slideentry {0}{0}{3}{6/9}{}{0}}
\headcommand {\beamer@framepages {6}{9}}
\headcommand {\slideentry {0}{0}{4}{10/13}{}{0}}
\headcommand {\beamer@framepages {10}{13}}
\headcommand {\slideentry {0}{0}{5}{14/17}{}{0}}
\headcommand {\beamer@framepages {14}{17}}
\headcommand {\slideentry {0}{0}{6}{18/21}{}{0}}
\headcommand {\beamer@framepages {18}{21}}
\headcommand {\slideentry {0}{0}{7}{22/25}{}{0}}
\headcommand {\beamer@framepages {22}{25}}
\headcommand {\slideentry {0}{0}{8}{26/29}{}{0}}
\headcommand {\beamer@framepages {26}{29}}
\headcommand {\slideentry {0}{0}{9}{30/33}{}{0}}
\headcommand {\beamer@framepages {30}{33}}
\headcommand {\beamer@partpages {1}{33}}
\headcommand {\beamer@subsectionpages {1}{33}}
\headcommand {\beamer@sectionpages {1}{33}}
\headcommand {\beamer@documentpages {33}}
\headcommand {\def \inserttotalframenumber {9}}
