\relax 
\providecommand\hyper@newdestlabel[2]{}
\providecommand\HyperFirstAtBeginDocument{\AtBeginDocument}
\HyperFirstAtBeginDocument{\ifx\hyper@anchor\@undefined
\global\let\oldcontentsline\contentsline
\gdef\contentsline#1#2#3#4{\oldcontentsline{#1}{#2}{#3}}
\global\let\oldnewlabel\newlabel
\gdef\newlabel#1#2{\newlabelxx{#1}#2}
\gdef\newlabelxx#1#2#3#4#5#6{\oldnewlabel{#1}{{#2}{#3}}}
\AtEndDocument{\ifx\hyper@anchor\@undefined
\let\contentsline\oldcontentsline
\let\newlabel\oldnewlabel
\fi}
\fi}
\global\let\hyper@last\relax 
\gdef\HyperFirstAtBeginDocument#1{#1}
\providecommand\HyField@AuxAddToFields[1]{}
\providecommand\HyField@AuxAddToCoFields[2]{}
\catcode `:\active 
\catcode `;\active 
\catcode `!\active 
\catcode `?\active 
\@writefile{toc}{\beamer@endinputifotherversion {3.36pt}}
\@writefile{nav}{\beamer@endinputifotherversion {3.36pt}}
\select@language{french}
\@writefile{toc}{\select@language{french}}
\@writefile{lof}{\select@language{french}}
\@writefile{lot}{\select@language{french}}
\select@language{french}
\@writefile{toc}{\select@language{french}}
\@writefile{lof}{\select@language{french}}
\@writefile{lot}{\select@language{french}}
\@writefile{nav}{\headcommand {\slideentry {0}{0}{1}{1/1}{}{0}}}
\@writefile{nav}{\headcommand {\beamer@framepages {1}{1}}}
\@writefile{nav}{\headcommand {\slideentry {0}{0}{2}{2/6}{}{0}}}
\@writefile{nav}{\headcommand {\beamer@framepages {2}{6}}}
\@writefile{nav}{\headcommand {\slideentry {0}{0}{3}{7/11}{}{0}}}
\@writefile{nav}{\headcommand {\beamer@framepages {7}{11}}}
\@writefile{nav}{\headcommand {\slideentry {0}{0}{4}{12/16}{}{0}}}
\@writefile{nav}{\headcommand {\beamer@framepages {12}{16}}}
\@writefile{nav}{\headcommand {\slideentry {0}{0}{5}{17/21}{}{0}}}
\@writefile{nav}{\headcommand {\beamer@framepages {17}{21}}}
\@writefile{nav}{\headcommand {\slideentry {0}{0}{6}{22/27}{}{0}}}
\@writefile{nav}{\headcommand {\beamer@framepages {22}{27}}}
\@writefile{nav}{\headcommand {\slideentry {0}{0}{7}{28/33}{}{0}}}
\@writefile{nav}{\headcommand {\beamer@framepages {28}{33}}}
\@writefile{nav}{\headcommand {\slideentry {0}{0}{8}{34/39}{}{0}}}
\@writefile{nav}{\headcommand {\beamer@framepages {34}{39}}}
\@writefile{nav}{\headcommand {\slideentry {0}{0}{9}{40/45}{}{0}}}
\@writefile{nav}{\headcommand {\beamer@framepages {40}{45}}}
\@writefile{nav}{\headcommand {\beamer@partpages {1}{45}}}
\@writefile{nav}{\headcommand {\beamer@subsectionpages {1}{45}}}
\@writefile{nav}{\headcommand {\beamer@sectionpages {1}{45}}}
\@writefile{nav}{\headcommand {\beamer@documentpages {45}}}
\@writefile{nav}{\headcommand {\def \inserttotalframenumber {9}}}
