\relax 
\providecommand\hyper@newdestlabel[2]{}
\providecommand\HyperFirstAtBeginDocument{\AtBeginDocument}
\HyperFirstAtBeginDocument{\ifx\hyper@anchor\@undefined
\global\let\oldcontentsline\contentsline
\gdef\contentsline#1#2#3#4{\oldcontentsline{#1}{#2}{#3}}
\global\let\oldnewlabel\newlabel
\gdef\newlabel#1#2{\newlabelxx{#1}#2}
\gdef\newlabelxx#1#2#3#4#5#6{\oldnewlabel{#1}{{#2}{#3}}}
\AtEndDocument{\ifx\hyper@anchor\@undefined
\let\contentsline\oldcontentsline
\let\newlabel\oldnewlabel
\fi}
\fi}
\global\let\hyper@last\relax 
\gdef\HyperFirstAtBeginDocument#1{#1}
\providecommand\HyField@AuxAddToFields[1]{}
\providecommand\HyField@AuxAddToCoFields[2]{}
\catcode `:\active 
\catcode `;\active 
\catcode `!\active 
\catcode `?\active 
\@writefile{toc}{\beamer@endinputifotherversion {3.36pt}}
\@writefile{nav}{\beamer@endinputifotherversion {3.36pt}}
\select@language{french}
\@writefile{toc}{\select@language{french}}
\@writefile{lof}{\select@language{french}}
\@writefile{lot}{\select@language{french}}
\select@language{french}
\@writefile{toc}{\select@language{french}}
\@writefile{lof}{\select@language{french}}
\@writefile{lot}{\select@language{french}}
\@writefile{nav}{\headcommand {\slideentry {0}{0}{1}{1/1}{}{0}}}
\@writefile{nav}{\headcommand {\beamer@framepages {1}{1}}}
\@writefile{nav}{\headcommand {\slideentry {0}{0}{2}{2/7}{}{0}}}
\@writefile{nav}{\headcommand {\beamer@framepages {2}{7}}}
\@writefile{nav}{\headcommand {\slideentry {0}{0}{3}{8/13}{}{0}}}
\@writefile{nav}{\headcommand {\beamer@framepages {8}{13}}}
\@writefile{nav}{\headcommand {\slideentry {0}{0}{4}{14/19}{}{0}}}
\@writefile{nav}{\headcommand {\beamer@framepages {14}{19}}}
\@writefile{nav}{\headcommand {\slideentry {0}{0}{5}{20/25}{}{0}}}
\@writefile{nav}{\headcommand {\beamer@framepages {20}{25}}}
\@writefile{nav}{\headcommand {\slideentry {0}{0}{6}{26/30}{}{0}}}
\@writefile{nav}{\headcommand {\beamer@framepages {26}{30}}}
\@writefile{nav}{\headcommand {\slideentry {0}{0}{7}{31/34}{}{0}}}
\@writefile{nav}{\headcommand {\beamer@framepages {31}{34}}}
\@writefile{nav}{\headcommand {\slideentry {0}{0}{8}{35/38}{}{0}}}
\@writefile{nav}{\headcommand {\beamer@framepages {35}{38}}}
\@writefile{nav}{\headcommand {\beamer@partpages {1}{38}}}
\@writefile{nav}{\headcommand {\beamer@subsectionpages {1}{38}}}
\@writefile{nav}{\headcommand {\beamer@sectionpages {1}{38}}}
\@writefile{nav}{\headcommand {\beamer@documentpages {38}}}
\@writefile{nav}{\headcommand {\def \inserttotalframenumber {8}}}
