\relax 
\providecommand\hyper@newdestlabel[2]{}
\providecommand\HyperFirstAtBeginDocument{\AtBeginDocument}
\HyperFirstAtBeginDocument{\ifx\hyper@anchor\@undefined
\global\let\oldcontentsline\contentsline
\gdef\contentsline#1#2#3#4{\oldcontentsline{#1}{#2}{#3}}
\global\let\oldnewlabel\newlabel
\gdef\newlabel#1#2{\newlabelxx{#1}#2}
\gdef\newlabelxx#1#2#3#4#5#6{\oldnewlabel{#1}{{#2}{#3}}}
\AtEndDocument{\ifx\hyper@anchor\@undefined
\let\contentsline\oldcontentsline
\let\newlabel\oldnewlabel
\fi}
\fi}
\global\let\hyper@last\relax 
\gdef\HyperFirstAtBeginDocument#1{#1}
\providecommand\HyField@AuxAddToFields[1]{}
\providecommand\HyField@AuxAddToCoFields[2]{}
\ifx\qr@savematrix\@undefined\def\qr@savematrix{\begingroup\let\do\@makeother\dospecials\catcode`\{=1\catcode`\}=2\relax \qr@savematrix@int}\def\qr@savematrix@int#1#2#3#4{\endgroup}\fi
\select@language{english}
\@writefile{toc}{\select@language{english}}
\@writefile{lof}{\select@language{english}}
\@writefile{lot}{\select@language{english}}
\select@language{english}
\@writefile{toc}{\select@language{english}}
\@writefile{lof}{\select@language{english}}
\@writefile{lot}{\select@language{english}}
\newlabel{textbox0}{{0.1}{1}{}{subsection.0.1}{}}
\pgfsyspdfmark {textboxtop0}{20528524}{49754748}
\pgfsyspdfmark {textboxbottom0}{15782766}{42953286}
\newlabel{checkbox0}{{0.2}{1}{}{subsection.0.2}{}}
\pgfsyspdfmark {pgfid9}{28302103}{38024431}
\newlabel{checkbox1}{{0.2}{1}{}{subsection.0.2}{}}
\pgfsyspdfmark {pgfid10}{29068497}{38024431}
\newlabel{checkbox2}{{0.2}{1}{}{subsection.0.2}{}}
\pgfsyspdfmark {pgfid11}{29834891}{38024431}
\newlabel{checkbox3}{{0.2}{1}{}{subsection.0.2}{}}
\pgfsyspdfmark {pgfid12}{30601285}{38024431}
\newlabel{checkbox4}{{0.3}{1}{}{subsection.0.3}{}}
\pgfsyspdfmark {pgfid21}{33362950}{38024431}
\newlabel{checkbox5}{{0.3}{1}{}{subsection.0.3}{}}
\pgfsyspdfmark {pgfid22}{34129344}{38024431}
\newlabel{checkbox6}{{0.3}{1}{}{subsection.0.3}{}}
\pgfsyspdfmark {pgfid23}{34895738}{38024431}
\newlabel{checkbox7}{{0.3}{1}{}{subsection.0.3}{}}
\pgfsyspdfmark {pgfid24}{35662132}{38024431}
\pgfsyspdfmark {pgfid25}{19579149}{-623905}
\pgfsyspdfmark {pgfid26}{19579149}{-623905}
\newlabel{LastPage}{{}{2}{}{page.2}{}}
\xdef\lastpage@lastpage{2}
\xdef\lastpage@lastpageHy{2}
