Savoir-faire,connaissance du cours,orthographe des mots du cours,respect des délais et des consignes,soin de la rédaction / présentation des calculs,calcul des coordonnées du milieu,calcul des coordonnées du symétrique,calcul de longueurs,calcul et fractions,résolutions d’équations,carrés de négatifs,démonstrations géométriques grâce aux calculs
ALLERON Baptiste,,,3,2,2,1,2,0,0,1,
BRILLET Esteban,,,3,2,3,2,3,3,2,,
COUSIN Théo,,,3,2,2,3,2,2,2,0,
FAUCHEUX Noah,,,1,1,1,2,0,0,1,,
GIROUX Julien,,,0,1,2,2,3,0,3,3,
GUERIN Arthur,,,3,2,3,3,3,3,3,3,
GUIBERT Maxime,,,3,2,1,2,2,0,3,0,
HUGUET Zachary,,,1,1,2,2,2,0,1,3,
LANDRIN Carl,,,3,1,2,2,2,0,3,3,
LE TALLEC Jean,,,3,2,2,2,2,1,1,3,
LEFEUVRE Trystan,,,3,2,3,2,1,3,3,0,
LEROUX Pierre,,,1,2,0,1,2,3,0,1,
LEVEILLE Aurelien,,,3,2,3,3,1,3,3,2,
MARTIN Tom,,,3,2,2,2,3,3,3,3,
MARY Virginie,,,3,3,2,1,3,2,0,3,
MASSE Yann,,,1,1,3,2,1,3,1,0,
MOINEAU Dany,,,1,1,3,2,0,1,3,,
MOREAU Louison,,,,,,,,,,,
OUTIN Vincent,,,3,3,3,3,0,3,2,,
PEIMBLANC Noé,,,3,1,3,1,3,3,2,3,
PERRIN Guillaume,,,3,2,3,3,3,3,2,3,
QUESNEL William,,,3,2,3,3,2,3,3,3,
ROMERO Mathias,,,3,2,2,2,2,1,2,3,
SURBLED Florent,,,3,3,3,3,3,3,3,3,
TOUGARD Oscar,,,1,2,3,1,3,1,1,3,
