Savoir-faire,connaissance du cours,orthographe des mots du cours,respect des délais et des consignes,soin de la rédaction / présentation des calculs,déterminer manuellement sur des cas simples la moyenne d’une série statistique,déterminer manuellement sur des cas simples une médiane d’une série statistique,déterminer manuellement sur des cas simples les quartiles d’une série statistique,interpréter les résultats précédents,déterminer les paramètres d’une série statistique en réglant correctement votre calculatrice.,déterminer graphiquement médiane et quartiles d’une série statistique,"mesurer l’hétérogénéité, la dispersion d’un série statistique",comparer deux séries statistiques à partir de leurs paramètres
ALLERON Baptiste,,,,,,,,,,,,
BRILLET Esteban,,,,,,,,,,,,
COUSIN Théo,,,,,,,,,,,,
FAUCHEUX Noah,,,,,,,,,,,,
GIROUX Julien,,,,,,,,,,,,
GUERIN Arthur,,,,,,,,,,,,
GUIBERT Maxime,,,,,,,,,,,,
HUGUET Zachary,,,,,,,,,,,,
LANDRIN Carl,,,,,,,,,,,,
LE TALLEC Jean,,,,,,,,,,,,
LEFEUVRE Trystan,,,,,,,,,,,,
LEROUX Pierre,,,,,,,,,,,,
LEVEILLE Aurelien,,,,,,,,,,,,
MARTIN Tom,,,,,,,,,,,,
MARY Virginie,,,,,,,,,,,,
MASSE Yann,,,,,,,,,,,,
MOINEAU Dany,,,,,,,,,,,,
MOREAU Louison,,,,,,,,,,,,
OUTIN Vincent,,,,,,,,,,,,
PEIMBLANC Noé,,,,,,,,,,,,
PERRIN Guillaume,,,,,,,,,,,,
QUESNEL William,,,,,,,,,,,,
ROMERO Mathias,,,,,,,,,,,,
SURBLED Florent,,,,,,,,,,,,
TOUGARD Oscar,,,,,,,,,,,,
