lastname,firstname,login,password
ALLERON,Baptiste,alleronb,alleronb
BRILLET,Esteban,brillete,brillete
COUSIN,Théo,cousint,cousint
FAUCHEUX,Noah,faucheun,faucheun
GIROUX,Julien,girouxj,girouxj
GUERIN,Arthur,guerina,guerina
GUIBERT,Maxime,guibertm,guibertm
HUGUET,Zachary,huguetz,huguetz
LANDRIN,Carl,landrinc,landrinc
LE TALLEC,Jean,le tallj,le tallj
LEFEUVRE,Trystan,lefeuvrt,lefeuvrt
LEROUX,Pierre,lerouxp,lerouxp
LEVEILLE,Aurelien,leveilla,leveilla
MARTIN,Tom,martint,martint
MARY,Virginie,maryv,maryv
MASSE,Yann,massey,massey
MOINEAU,Dany,moineaud,moineaud
MOREAU,Louison,moreaul,moreaul
OUTIN,Vincent,outinv,outinv
PEIMBLANC,Noé,peimblan,peimblan
PERRIN,Guillaume,perring,perring
QUESNEL,William,quesnelw,quesnelw
ROMERO,Mathias,romerom,romerom
SURBLED,Florent,surbledf,surbledf
TOUGARD,Oscar,tougardo,tougardo
