exercices,Équations du second degré,Inéquations du second degré,angles égaux ,cosinus et sinus,mesure principale,équations trigonométriques
AYMES Cyril,3,3,2,3,3,0
BARBEDETTE Arsène,3,3,2,3,3,0
BERTHELOT Corentin,3,3,2,3,3,0
BRUNO Aidan,3,3,2,3,3,0
BUTEL Simon,3,3,2,3,3,0
COMPOINT Pierre,3,2,2,3,3,0
DANIEL John,3,2,2,3,3,0
DEBOCK Romain,3,3,2,3,3,0
DESFOURS Anthony,3,3,2,3,3,0
DESGRANGES Thomas,3,3,2,3,3,0
EMPEREUR Adrien,0,0,4,4,4,2
HEDOU Thomas,0,0,4,4,4,2
LEBRETON Théo,3,3,2,3,3,0
LEFAUDEUX Théo,3,3,2,3,3,0
LEHERICEY Lucas,3,3,2,3,3,0
LEROUX Damien,3,3,2,3,3,0
LEVESQUE Willy,1,2,3,3,4,1
LEVILLY Paul,3,3,2,3,3,0
PAQUET Valentin,3,3,2,3,3,0
PAYEN Maxime,3,3,2,3,3,0
PERSIAUX Adrien,4,1,2,3,3,0
POMMIER Marin,3,3,2,3,3,0
SEGUIN Pierre-Alexandre,2,3,2,3,3,0
SERRANT Joris,3,3,2,3,3,0
WYZGOLIK Nathan,3,3,2,3,3,0
